<?xml version="1.0" encoding="iso-8859-1"?>
<!-- Generator: Adobe Illustrator 16.0.4, SVG Export Plug-In . SVG Version: 6.00 Build 0)  -->
<!DOCTYPE svg PUBLIC "-//W3C//DTD SVG 1.1//EN" "http://www.w3.org/Graphics/SVG/1.1/DTD/svg11.dtd">
<svg version="1.1" id="RAW_ICONS_-_SQUARE__x2F__ROUNDED__x2F__CIRCLE"
	 xmlns="http://www.w3.org/2000/svg" xmlns:xlink="http://www.w3.org/1999/xlink" x="0px" y="0px" width="1000px" height="500px"
	 viewBox="0 0 1000 500" style="enable-background:new 0 0 1000 500;" xml:space="preserve">
<rect x="514.992" y="134.718" style="fill:none;stroke:#FFFFFF;" width="32" height="32"/>
<g>
	<polygon style="fill:#FFFFFF;" points="533.854,157.93 526.643,150.718 533.854,143.505 534.847,144.496 528.625,150.718 
		534.847,156.939 	"/>
	<circle style="fill:#FFFFFF;" cx="527.633" cy="150.719" r="2.77"/>
	<circle style="fill:#FFFFFF;" cx="534.35" cy="144.001" r="2.77"/>
	<circle style="fill:#FFFFFF;" cx="534.35" cy="157.434" r="2.77"/>
</g>
</svg>
