<?xml version="1.0" encoding="iso-8859-1"?>
<!-- Generator: Adobe Illustrator 16.0.4, SVG Export Plug-In . SVG Version: 6.00 Build 0)  -->
<!DOCTYPE svg PUBLIC "-//W3C//DTD SVG 1.1//EN" "http://www.w3.org/Graphics/SVG/1.1/DTD/svg11.dtd">
<svg version="1.1" id="Layer_1" xmlns="http://www.w3.org/2000/svg" xmlns:xlink="http://www.w3.org/1999/xlink" x="0px" y="0px"
	 width="792px" height="1224px" viewBox="0 0 792 1224" style="enable-background:new 0 0 792 1224;" xml:space="preserve">
<polygon points="682.694,238.722 585.917,258.907 489.139,238.722 489.139,105.732 585.775,117.188 682.694,105.732 "/>
<path style="fill:#FFFFFF;" d="M523.483,163.827h-7.587v13.619h-9.987V132.05h18.547c10.83,0,17.38,6.42,17.38,15.694v0.13
	C541.836,158.379,533.665,163.827,523.483,163.827z M531.72,147.938c0-4.475-3.113-6.874-8.106-6.874h-7.717v13.878h7.911
	c4.994,0,7.912-2.983,7.912-6.874V147.938z"/>
<path style="fill:#FFFFFF;" d="M536.912,177.445l11.09-16.212c-5.772-2.14-9.728-6.745-9.728-14.072v-0.13
	c0-9.338,6.42-14.98,17.12-14.98h20.752v45.395h-9.987v-14.526h-7.847l-9.728,14.526H536.912z M548.391,147.679
	c0,3.826,2.788,6.42,7.652,6.42h10.116v-13.035h-9.922c-4.863,0-7.847,2.205-7.847,6.485V147.679z"/>
<path style="fill:#FFCA05;" d="M581.011,177.445V132.05h9.987v45.395H581.011z"/>
<path style="fill:#FFFFFF;" d="M613.566,177.445h-17.704V132.05h17.704c14.267,0,24.124,9.792,24.124,22.568v0.13
	C637.69,167.523,627.833,177.445,613.566,177.445z M627.25,154.748c0-8.042-5.513-13.684-13.684-13.684h-7.717v27.367h7.717
	c8.171,0,13.684-5.512,13.684-13.554V154.748z"/>
<path style="fill:#FFFFFF;" d="M632.311,177.445V132.05h34.241v8.885h-24.319v9.208h21.4v8.884h-21.4v9.533h24.644v8.884H632.311z"
	/>
<path style="fill:#00ADEE;" d="M537.598,228.296c-7.264,0-12.841-2.399-18.288-7.263l2.205-2.529
	c4.993,4.604,9.598,6.745,16.277,6.745c6.809,0,11.479-3.826,11.479-9.014v-0.13c0-4.799-2.529-7.587-12.841-9.663
	c-10.895-2.205-15.305-5.901-15.305-12.775v-0.129c0-6.745,6.161-11.933,14.592-11.933c6.614,0,10.959,1.816,15.563,5.512
	l-2.14,2.659c-4.28-3.697-8.561-5.124-13.554-5.124c-6.68,0-11.09,3.826-11.09,8.561v0.129c0,4.799,2.465,7.717,13.229,9.922
	c10.506,2.14,14.916,5.901,14.916,12.516v0.13C552.643,223.238,546.352,228.296,537.598,228.296z"/>
<path style="fill:#00ADEE;" d="M561.853,185.365v42.282h-3.372v-42.282h-15.823v-3.113h31.1l1.919,3.113H561.853z"/>
<path style="fill:#00ADEE;" d="M593.112,209.619v18.028h-3.372v-17.963l-19.455-27.432h4.215l16.991,24.384l16.984-24.282
	l2.747,1.791L593.112,209.619z"/>
<path style="fill:#00ADEE;" d="M608.418,227.647v-45.395h3.372v42.282h26.653v3.113H608.418z"/>
<path style="fill:#00ADEE;" d="M634.295,227.647v-45.395h32.296v3.113h-28.924v17.834h26.005v3.113h-26.005v18.223h29.248v3.113
	H634.295z"/>
<g>
	<path style="fill:#FFFFFF;" d="M506.019,219.051v-1.738l8.705-2.874l-8.672-2.791v-2.155l11.78,4.077v1.771l-8.404,2.874
		l8.404,2.874v1.771l-11.78,4.077v-2.222l8.672-2.79L506.019,219.051z"/>
	<path style="fill:#FFFFFF;" d="M506.052,205.557h11.696v2.055h-11.696V205.557z"/>
	<path style="fill:#FFFFFF;" d="M517.749,197.823v2.072h-9.791v3.709h-1.905v-9.49h1.905v3.709H517.749z"/>
	<path style="fill:#FFFFFF;" d="M512.82,190.223h4.929v2.055h-11.696v-2.055h4.862v-5.581h-4.862v-2.055h11.696v2.055h-4.929
		V190.223z"/>
</g>
<polygon style="fill:#EB008B;" points="548.059,100.508 489.139,93.551 489.139,100.585 548.059,107.598 "/>
<polygon style="fill:#00ADEE;" points="623.774,100.488 623.774,107.578 682.694,100.585 682.694,93.551 "/>
<polygon style="fill:#FFCA05;" points="616.131,101.388 585.775,104.961 555.417,101.377 555.417,108.474 585.774,112.087 
	616.131,108.484 "/>
</svg>
